1. Introduction • beastr
…
# Using beastr:
system.file("lotek/activity33452.csv", package = "beastr") %>% 
  read_lotek_activity()
#> # A tibble: 4,321 × 4
#>    device_id time                 ODBA `Temperature [C]`
#>    <chr>     <dttm>              <dbl>             <dbl>
#>  1 33452     2021-11-23 21:40:00   140               8.5
#>  2 33452     2021-11-23 21:45:00    10               7  
#>  3 33452     2021-11-23 21:50:00     7               5  
#>  4 33452     2021-11-23 21:55:00    14               4.5
#>  5 33452     2021-11-23 22:00:00     7               4  
#>  6 33452     2021-11-23 22:05:00     7               3.5
#>  7 33452     2021-11-23 22:10:00    96               7.5
#>  8 33452     2021-11-23 22:15:00   288              13  
#>  9 33452     2021-11-23 22:20:00   405              19.5
#> 10 33452     2021-11-23 22:25:00    28              14  
#> # … with 4,311 more rows
…
